{
  "development": {
    "username": "rl",
    "password": "237899AsD",
    "database": "app_bridge",
    "host": "localhost",
    "dialect": "mysql"
  },
  "development2": {
    "username": "root",
    "password": "dimafil1903",
    "database": "app_bridge",
    "host": "127.0.0.1",
    "dialect": "mysql"
  },
  "test": {
    "username": "root",
    "password": null,
    "database": "database_test",
    "host": "127.0.0.1",
    "dialect": "mysql"
  },
  "production": {
    "username": "root",
    "password": null,
    "database": "database_production",
    "host": "127.0.0.1",
    "dialect": "mysql"
  }
}
